\relax 
\providecommand\hyper@newdestlabel[2]{}
\providecommand\zref@newlabel[2]{}
\providecommand\HyperFirstAtBeginDocument{\AtBeginDocument}
\HyperFirstAtBeginDocument{\ifx\hyper@anchor\@undefined
\global\let\oldcontentsline\contentsline
\gdef\contentsline#1#2#3#4{\oldcontentsline{#1}{#2}{#3}}
\global\let\oldnewlabel\newlabel
\gdef\newlabel#1#2{\newlabelxx{#1}#2}
\gdef\newlabelxx#1#2#3#4#5#6{\oldnewlabel{#1}{{#2}{#3}}}
\AtEndDocument{\ifx\hyper@anchor\@undefined
\let\contentsline\oldcontentsline
\let\newlabel\oldnewlabel
\fi}
\fi}
\global\let\hyper@last\relax 
\gdef\HyperFirstAtBeginDocument#1{#1}
\providecommand\HyField@AuxAddToFields[1]{}
\providecommand\HyField@AuxAddToCoFields[2]{}
\@writefile{toc}{\contentsline {section}{\numberline {1}Introduction}{1}{section.1}}
\@writefile{toc}{\contentsline {section}{\numberline {2}Overview}{1}{section.2}}
\@writefile{toc}{\contentsline {section}{\numberline {3}Prerequisites}{2}{section.3}}
\@writefile{toc}{\contentsline {subsection}{\numberline {3.1}System Environment}{2}{subsection.3.1}}
\newlabel{environment}{{3.1}{2}{System Environment}{subsection.3.1}{}}
\@writefile{toc}{\contentsline {subsection}{\numberline {3.2}Knowledge and Skills}{2}{subsection.3.2}}
\@writefile{toc}{\contentsline {section}{\numberline {4}Getting the Code Base}{3}{section.4}}
\newlabel{codebase}{{4}{3}{Getting the Code Base}{section.4}{}}
\@writefile{toc}{\contentsline {section}{\numberline {5}Programming}{4}{section.5}}
\@writefile{lol}{\contentsline {lstlisting}{../src/com/jimweller/cpuscheduler/SchedulingAlgorithm.java}{4}{lstlisting.-1}}
\@writefile{toc}{\contentsline {subsection}{\numberline {5.1}First-Come First-Served (10 points)}{5}{subsection.5.1}}
\newlabel{alg_fcfs}{{5.1}{5}{First-Come First-Served (10 points)}{subsection.5.1}{}}
\@writefile{toc}{\contentsline {subsection}{\numberline {5.2}Shortest Job First (25 points)}{5}{subsection.5.2}}
\newlabel{alg_sjf}{{5.2}{5}{Shortest Job First (25 points)}{subsection.5.2}{}}
\@writefile{toc}{\contentsline {subsection}{\numberline {5.3}Single-Queue Priority (25 points)}{5}{subsection.5.3}}
\newlabel{alg_priority}{{5.3}{5}{Single-Queue Priority (25 points)}{subsection.5.3}{}}
\@writefile{toc}{\contentsline {subsection}{\numberline {5.4}Round Robin (30 points)}{5}{subsection.5.4}}
\newlabel{alg_rr}{{5.4}{5}{Round Robin (30 points)}{subsection.5.4}{}}
\@writefile{toc}{\contentsline {section}{\numberline {6}Building the Simulator}{6}{section.6}}
\newlabel{building}{{6}{6}{Building the Simulator}{section.6}{}}
\@writefile{toc}{\contentsline {subsection}{\numberline {6.1}Compiling}{6}{subsection.6.1}}
\newlabel{compiling}{{6.1}{6}{Compiling}{subsection.6.1}{}}
\@writefile{toc}{\contentsline {subsection}{\numberline {6.2}Running a Single-Case Simulation}{6}{subsection.6.2}}
\@writefile{toc}{\contentsline {subsection}{\numberline {6.3}Creating Job Lists}{7}{subsection.6.3}}
\newlabel{process_data}{{6.3}{7}{Creating Job Lists}{subsection.6.3}{}}
\@writefile{toc}{\contentsline {section}{\numberline {7}Making a Submission}{8}{section.7}}
\newlabel{submission}{{7}{8}{Making a Submission}{section.7}{}}
\@writefile{toc}{\contentsline {section}{\numberline {8}Testing on the Public Cases}{8}{section.8}}
\newlabel{testing}{{8}{8}{Testing on the Public Cases}{section.8}{}}
\@writefile{toc}{\contentsline {section}{\numberline {9}Possible Issues}{9}{section.9}}
\@writefile{toc}{\contentsline {subsection}{\numberline {9.1}Setting Up the System \texttt  {PATH}}{9}{subsection.9.1}}
\@writefile{toc}{\contentsline {subsection}{\numberline {9.2}Fixing File Permissions}{9}{subsection.9.2}}
\@writefile{toc}{\contentsline {subsection}{\numberline {9.3}Setting Up a UNIX-like Environment in Microsoft Windows}{9}{subsection.9.3}}
\@writefile{toc}{\contentsline {section}{\numberline {10}Using Other Systems/Languages}{10}{section.10}}
\@writefile{toc}{\contentsline {section}{\numberline {11}Acknowledgment}{10}{section.11}}
